...................
----------------------------------------------------------------------
Ran 19 tests in 12.700s

OK
Name             Stmts   Miss Branch BrPart  Cover   Missing
------------------------------------------------------------
Collatz.py          36      0     14      0   100%
TestCollatz.py      84      0      0      0   100%
------------------------------------------------------------
TOTAL              120      0     14      0   100%
